{
  "GET buyer/product/ID" : {
    "transaction" : "GET buyer/product/ID",
    "sampleCount" : 200,
    "errorCount" : 0,
    "errorPct" : 0.0,
    "meanResTime" : 312.335,
    "medianResTime" : 280.0,
    "minResTime" : 254.0,
    "maxResTime" : 1074.0,
    "pct1ResTime" : 356.70000000000005,
    "pct2ResTime" : 409.5499999999999,
    "pct3ResTime" : 1053.6900000000003,
    "throughput" : 2.7464982147761603,
    "receivedKBytesPerSec" : 2.3495433946717936,
    "sentKBytesPerSec" : 0.9762942872837134
  },
  "GET buyer/order" : {
    "transaction" : "GET buyer/order",
    "sampleCount" : 200,
    "errorCount" : 0,
    "errorPct" : 0.0,
    "meanResTime" : 403.5649999999998,
    "medianResTime" : 378.0,
    "minResTime" : 273.0,
    "maxResTime" : 1115.0,
    "pct1ResTime" : 525.7,
    "pct2ResTime" : 584.6499999999999,
    "pct3ResTime" : 1083.6400000000003,
    "throughput" : 2.7454048785844694,
    "receivedKBytesPerSec" : 3.225314520446403,
    "sentKBytesPerSec" : 0.9544571648203818
  },
  "GET buyer/product" : {
    "transaction" : "GET buyer/product",
    "sampleCount" : 200,
    "errorCount" : 0,
    "errorPct" : 0.0,
    "meanResTime" : 1220.5349999999999,
    "medianResTime" : 1189.0,
    "minResTime" : 1036.0,
    "maxResTime" : 1822.0,
    "pct1ResTime" : 1362.9,
    "pct2ResTime" : 1411.0,
    "pct3ResTime" : 1747.0,
    "throughput" : 2.7085590465872156,
    "receivedKBytesPerSec" : 471.965686471594,
    "sentKBytesPerSec" : 1.02893502843987
  },
  "POST seller/product" : {
    "transaction" : "POST seller/product",
    "sampleCount" : 200,
    "errorCount" : 0,
    "errorPct" : 0.0,
    "meanResTime" : 635.5699999999997,
    "medianResTime" : 494.0,
    "minResTime" : 292.0,
    "maxResTime" : 2248.0,
    "pct1ResTime" : 1246.5,
    "pct2ResTime" : 1355.7499999999998,
    "pct3ResTime" : 2179.470000000003,
    "throughput" : 2.7203852065452465,
    "receivedKBytesPerSec" : 1.7879094179735848,
    "sentKBytesPerSec" : 0.0
  },
  "GET seller/product" : {
    "transaction" : "GET seller/product",
    "sampleCount" : 200,
    "errorCount" : 0,
    "errorPct" : 0.0,
    "meanResTime" : 496.5550000000003,
    "medianResTime" : 485.5,
    "minResTime" : 285.0,
    "maxResTime" : 1149.0,
    "pct1ResTime" : 628.8,
    "pct2ResTime" : 686.9,
    "pct3ResTime" : 1110.94,
    "throughput" : 2.7329871549603717,
    "receivedKBytesPerSec" : 1.9056179967204152,
    "sentKBytesPerSec" : 0.9581468638972396
  },
  "POST auth/login as buyer" : {
    "transaction" : "POST auth/login as buyer",
    "sampleCount" : 200,
    "errorCount" : 0,
    "errorPct" : 0.0,
    "meanResTime" : 438.1199999999998,
    "medianResTime" : 422.5,
    "minResTime" : 327.0,
    "maxResTime" : 710.0,
    "pct1ResTime" : 556.8,
    "pct2ResTime" : 596.6999999999999,
    "pct3ResTime" : 682.8800000000001,
    "throughput" : 2.7365770893766075,
    "receivedKBytesPerSec" : 1.3549263518690822,
    "sentKBytesPerSec" : 1.1422002421870723
  },
  "DELETE seller/product/ID" : {
    "transaction" : "DELETE seller/product/ID",
    "sampleCount" : 200,
    "errorCount" : 0,
    "errorPct" : 0.0,
    "meanResTime" : 471.56000000000006,
    "medianResTime" : 451.0,
    "minResTime" : 286.0,
    "maxResTime" : 1164.0,
    "pct1ResTime" : 645.2,
    "pct2ResTime" : 695.8,
    "pct3ResTime" : 1103.920000000001,
    "throughput" : 2.757973992305253,
    "receivedKBytesPerSec" : 0.8672535405491126,
    "sentKBytesPerSec" : 1.0423202490450516
  },
  "POST buyer/order" : {
    "transaction" : "POST buyer/order",
    "sampleCount" : 200,
    "errorCount" : 0,
    "errorPct" : 0.0,
    "meanResTime" : 409.00500000000017,
    "medianResTime" : 391.0,
    "minResTime" : 283.0,
    "maxResTime" : 689.0,
    "pct1ResTime" : 558.9,
    "pct2ResTime" : 619.75,
    "pct3ResTime" : 666.9000000000001,
    "throughput" : 2.7421676835538493,
    "receivedKBytesPerSec" : 1.8182928292315075,
    "sentKBytesPerSec" : 1.1573875711249741
  },
  "POST auth/register as seller" : {
    "transaction" : "POST auth/register as seller",
    "sampleCount" : 200,
    "errorCount" : 0,
    "errorPct" : 0.0,
    "meanResTime" : 690.9449999999998,
    "medianResTime" : 505.5,
    "minResTime" : 332.0,
    "maxResTime" : 1790.0,
    "pct1ResTime" : 1324.7,
    "pct2ResTime" : 1523.6499999999999,
    "pct3ResTime" : 1756.92,
    "throughput" : 2.6691222591450803,
    "receivedKBytesPerSec" : 1.5404797413620532,
    "sentKBytesPerSec" : 0.0
  },
  "PUT buyer/order/ID" : {
    "transaction" : "PUT buyer/order/ID",
    "sampleCount" : 200,
    "errorCount" : 0,
    "errorPct" : 0.0,
    "meanResTime" : 394.28000000000003,
    "medianResTime" : 354.0,
    "minResTime" : 277.0,
    "maxResTime" : 1189.0,
    "pct1ResTime" : 547.9,
    "pct2ResTime" : 654.7999999999997,
    "pct3ResTime" : 872.98,
    "throughput" : 2.7522809528396657,
    "receivedKBytesPerSec" : 1.8115599240370457,
    "sentKBytesPerSec" : 1.1019874908830694
  },
  "GET seller/product/ID" : {
    "transaction" : "GET seller/product/ID",
    "sampleCount" : 200,
    "errorCount" : 0,
    "errorPct" : 0.0,
    "meanResTime" : 454.73000000000013,
    "medianResTime" : 434.0,
    "minResTime" : 278.0,
    "maxResTime" : 1190.0,
    "pct1ResTime" : 628.2,
    "pct2ResTime" : 699.8,
    "pct3ResTime" : 903.7300000000012,
    "throughput" : 2.7363524421945544,
    "receivedKBytesPerSec" : 1.9026200574634011,
    "sentKBytesPerSec" : 0.9753600013681761
  },
  "POST auth/login as seller" : {
    "transaction" : "POST auth/login as seller",
    "sampleCount" : 200,
    "errorCount" : 0,
    "errorPct" : 0.0,
    "meanResTime" : 531.435,
    "medianResTime" : 445.0,
    "minResTime" : 327.0,
    "maxResTime" : 1418.0,
    "pct1ResTime" : 1089.7,
    "pct2ResTime" : 1238.2999999999997,
    "pct3ResTime" : 1380.7000000000003,
    "throughput" : 2.7003307905218388,
    "receivedKBytesPerSec" : 1.3422542698980626,
    "sentKBytesPerSec" : 1.1312909268885438
  },
  "Total" : {
    "transaction" : "Total",
    "sampleCount" : 3000,
    "errorCount" : 0,
    "errorPct" : 0.0,
    "meanResTime" : 517.8523333333354,
    "medianResTime" : 424.0,
    "minResTime" : 254.0,
    "maxResTime" : 2248.0,
    "pct1ResTime" : 1102.9,
    "pct2ResTime" : 1223.9499999999998,
    "pct3ResTime" : 1422.9799999999996,
    "throughput" : 37.18163227365681,
    "receivedKBytesPerSec" : 455.11848982540124,
    "sentKBytesPerSec" : 11.291500123938773
  },
  "POST auth/register as buyer" : {
    "transaction" : "POST auth/register as buyer",
    "sampleCount" : 200,
    "errorCount" : 0,
    "errorPct" : 0.0,
    "meanResTime" : 529.6599999999996,
    "medianResTime" : 476.5,
    "minResTime" : 331.0,
    "maxResTime" : 1504.0,
    "pct1ResTime" : 655.7,
    "pct2ResTime" : 1162.1999999999996,
    "pct3ResTime" : 1477.4800000000005,
    "throughput" : 2.734519203161104,
    "receivedKBytesPerSec" : 1.5755530565088394,
    "sentKBytesPerSec" : 0.0
  },
  "GET buyer/order/ID" : {
    "transaction" : "GET buyer/order/ID",
    "sampleCount" : 200,
    "errorCount" : 0,
    "errorPct" : 0.0,
    "meanResTime" : 372.3099999999997,
    "medianResTime" : 357.0,
    "minResTime" : 272.0,
    "maxResTime" : 1034.0,
    "pct1ResTime" : 464.9,
    "pct2ResTime" : 516.5999999999999,
    "pct3ResTime" : 652.9100000000001,
    "throughput" : 2.748989746268246,
    "receivedKBytesPerSec" : 3.224156919207191,
    "sentKBytesPerSec" : 0.9718108282706105
  },
  "DELETE buyer/order/ID" : {
    "transaction" : "DELETE buyer/order/ID",
    "sampleCount" : 200,
    "errorCount" : 0,
    "errorPct" : 0.0,
    "meanResTime" : 407.1799999999999,
    "medianResTime" : 376.5,
    "minResTime" : 274.0,
    "maxResTime" : 1142.0,
    "pct1ResTime" : 548.5,
    "pct2ResTime" : 614.75,
    "pct3ResTime" : 1085.0400000000009,
    "throughput" : 2.7558838119384887,
    "receivedKBytesPerSec" : 0.8881266190817395,
    "sentKBytesPerSec" : 1.0334564294769333
  }
}